{
  "aujourd'hui à 20h": "Aujourd'hui à 20h",
  "demain à 13h": "Demain à 13h",
  "demain à 20h": "demain à 20h",
  "ce soir à 19h": "Ce soir à 19h",
  "lundi à 13h": "lundi à 13h",
  "mardi à 18h30": "mardi à 18h30",
  "lundi prochain à midi": "Lundi prochain à midi",
  "mardi prochain à 12h": "Mardi prochain à 12h",
  "mercredi prochain à 14h": "Mercredi prochain à 14h",
  "le 12 mai à 13h30": "Le 12 mai à 13h30",
  "le 22 juin à 19h30": "Le 22 juin à 19h30",
  "le 15 juillet à 20h": "Le 15 juillet à 20h",
  "10 décembre à 18h": "10 décembre à 18h",
  "pour ce soir à 21h": "pour ce soir à 21h",
  "pour demain à 14h": "pour demain à 14h",
  "ce midi": "ce midi",
  "pour ce midi": "pour ce midi",
  "à midi": "à midi",
  "pour midi": "pour midi",
  "pour 12h": "pour 12h",
  "à 19h30": "à 19h30",
  "pour 20h30": "pour 20h30",
  "ce soir à 20h": "ce soir à 20h",
  "pour ce soir à 19h": "pour ce soir à 19h",
  "napoli": "Napoli",
  "le napoli": "le napoli",
  "oba ramen": "Oba Ramen",
  "shokudo": "Shokudo",
  "la petite boulangerie": "La Petite Boulangerie",
  "le café du coin": "Le Café du Coin",
  "le bistro parisien": "Le Bistro Parisien",
  "chez lucien": "Chez Lucien",
  "la pizzeria bella": "La Pizzeria Bella",
  "le jardin secret": "Le Jardin Secret",
  "le restaurant du port": "Le Restaurant du Port",
  "l'auberge du chêne": "L'Auberge du Chêne",
  "la table d'epicure": "La Table d'Epicure",
  "la maison des saveurs": "La Maison des Saveurs",
  "le gourmet": "Le Gourmet",
  "le palace": "Le Palace",
  "bistro moderne": "Bistro Moderne",
  "la brasserie du parc": "La Brasserie du Parc",
  "chez jean": "Chez Jean",
  "l'atelier de joël": "L'Atelier de Joël",
  "le repère des gourmets": "Le Repère des Gourmets",
  "la taverne royale": "La Taverne Royale",
  "au bon accueil": "Au Bon Accueil",
  "le relais des amis": "Le Relais des Amis",
  "une personne": "une personne",
  "2 personnes": "2 personnes",
  "3 personnes": "3 personnes",
  "4": "4",
  "5": "5",
  "6": "6",
  "10": "10",
  "nourriture sans gluten pour une personne": "Nourriture sans gluten pour une personne",
  "plat vegan": "plat vegan",
  "je suis vegan": "je suis vegan",
  "je suis végétarien": "je suis végétarien",
  "je suis allergique aux fruits de mer": "je suis allergique aux fruits de mer",
  "préférence pour une table près de la fenêtre": "Préférence pour une table près de la fenêtre",
  "musique live préférée": "Musique live préférée",
  "allergies alimentaires : pas de fruits de mer": "Allergies alimentaires : pas de fruits de mer",
  "préférence pour une ambiance calme": "Préférence pour une ambiance calme",
  "besoin d'une chaise haute pour bébé": "Besoin d'une chaise haute pour bébé",
  "besoin d'un menu végétarien": "Besoin d'un menu végétarien",
  "envie de gâteau d'anniversaire": "Envie de gâteau d'anniversaire",
  "réservation pour une occasion spéciale": "Réservation pour une occasion spéciale",
  "besoin d'un accès handicapé": "Besoin d'un accès handicapé",
  "allergie aux noix": "Allergie aux noix",
  "table avec vue": "Table avec vue",
  "préférence pour une table en terrasse": "Préférence pour une table en terrasse",
  "besoin d'un menu sans lactose": "Besoin d'un menu sans lactose",
  "pas de gluten dans les plats": "Pas de gluten dans les plats",
  "célébration d'anniversaire": "Célébration d'anniversaire",
  "préférence pour une table dans un coin tranquille": "Préférence pour une table dans un coin tranquille",
  "allergie au gluten": "Allergie au gluten",
  "demande de service rapide": "Demande de service rapide",
  "besoin d'un menu sans produits laitiers": "Besoin d'un menu sans produits laitiers",
  "123456": "123456",
  "789012": "789012",
  "345678": "345678",
  "901234": "901234",
  "567890": "567890",
  "234567": "234567",
  "890123": "890123",
  "456789": "456789",
  "012345": "012345",
  "678901": "678901",
  "543210": "543210",
  "678543": "678543",
  "john doe": "John Doe",
  "jane smith": "Jane Smith",
  "robert johnson": "Robert Johnson",
  "michael brown": "Michael Brown",
  "emily davis": "Emily Davis",
  "david wilson": "David Wilson",
  "sophia garcia": "Sophia Garcia",
  "james martinez": "James Martinez",
  "isabella anderson": "Isabella Anderson",
  "benjamin thomas": "Benjamin Thomas",
  "emma jackson": "Emma Jackson",
  "daniel white": "Daniel White",
  "ava harris": "Ava Harris",
  "matthew clark": "Matthew Clark",
  "olivia rodriguez": "Olivia Rodriguez",
  "lucas lewis": "Lucas Lewis",
  "mia walker": "Mia Walker",
  "liam lee": "Liam Lee",
  "charlotte young": "Charlotte Young",
  "alexander king": "Alexander King",
  "0123456789": "0123456789",
  "0987654321": "0987654321",
  "0157894632": "0157894632",
  "0246813579": "0246813579",
  "0369258147": "0369258147",
  "0472569813": "0472569813",
  "0583642197": "0583642197",
  "0691472583": "0691472583",
  "0712365984": "0712365984",
  "0824571396": "0824571396",
  "0936481725": "0936481725",
  "0102030405": "0102030405",
  "0123984756": "0123984756",
  "0145872639": "0145872639",
  "0162398475": "0162398475",
  "0184759261": "0184759261",
  "0192837465": "0192837465",
  "0213456789": "0213456789",
  "0234567891": "0234567891",
  "0256789012": "0256789012"
}