[
  {
    "tag_name": "entity",
    "ids_to_tags": {
      "1": "B-commentaire",
      "2": "I-commentaire",
      "3": "L-commentaire",
      "4": "U-commentaire",
      "5": "B-date_reservation",
      "6": "I-date_reservation",
      "7": "L-date_reservation",
      "8": "U-date_reservation",
      "9": "B-nb_personnes",
      "10": "I-nb_personnes",
      "11": "L-nb_personnes",
      "12": "U-nb_personnes",
      "13": "B-nom",
      "14": "I-nom",
      "15": "L-nom",
      "16": "U-nom",
      "17": "B-nom_restaurant",
      "18": "I-nom_restaurant",
      "19": "L-nom_restaurant",
      "20": "U-nom_restaurant",
      "21": "B-numero_reservation",
      "22": "I-numero_reservation",
      "23": "L-numero_reservation",
      "24": "U-numero_reservation",
      "25": "B-numero_telephone",
      "26": "I-numero_telephone",
      "27": "L-numero_telephone",
      "28": "U-numero_telephone",
      "0": "O"
    },
    "tags_to_ids": {
      "B-commentaire": 1,
      "I-commentaire": 2,
      "L-commentaire": 3,
      "U-commentaire": 4,
      "B-date_reservation": 5,
      "I-date_reservation": 6,
      "L-date_reservation": 7,
      "U-date_reservation": 8,
      "B-nb_personnes": 9,
      "I-nb_personnes": 10,
      "L-nb_personnes": 11,
      "U-nb_personnes": 12,
      "B-nom": 13,
      "I-nom": 14,
      "L-nom": 15,
      "U-nom": 16,
      "B-nom_restaurant": 17,
      "I-nom_restaurant": 18,
      "L-nom_restaurant": 19,
      "U-nom_restaurant": 20,
      "B-numero_reservation": 21,
      "I-numero_reservation": 22,
      "L-numero_reservation": 23,
      "U-numero_reservation": 24,
      "B-numero_telephone": 25,
      "I-numero_telephone": 26,
      "L-numero_telephone": 27,
      "U-numero_telephone": 28,
      "O": 0
    },
    "num_tags": 29
  }
]