{
  "lookup": {
    "eJyLrq6NBQAEOAGx": "action_listen",
    "eJyLrq7VUaguKEoti09MLsnMz7NSqIYw4vMSc1OtFKCcnMziktQ8oNrS4tQioJrMPCC3BCidl1eak1oUX5QKFC9LBKmtrY0FAJafIXQ=": "action_annuler_reservation",
    "eJyLrq7VUaguKEoti09MLsnMz7NSqIYw4vMSc1OtFKCcnMziktQ8oNrS4tQioJrMPCC3BCidl1eak1oUX5QKFC9LBKmtJc5EbDqJMz4WANrZRq4=": "action_listen",
    "eJyLrq7VUaguKEoti09MLsnMz7NSqIYw4vMSc1OtFKCcnMziktQ8oNrS4tQioJrMPCC3xEohvSg1taS2NhYA6dwbhQ==": "utter_greet",
    "eJyLrq7VUaguKEoti09MLsnMz7NSqIYw4vMSc1OtFKCcnMziktQ8oNrS4tQioJrMPCC3xEohvSg1taSWgBmlJSWpRfEQpbhMiAUAQvc0lw==": "action_listen",
    "eJyLrq7VUaguKEoti09MLsnMz7NSqIYw4vMSc1OtFKCcnMziktQ8oNrS4tQioJrMPCC3xEohvSg1taSWgBmlJSWpRfEQpeSZQMAVufn5KSDzE4EGxQIAPEFQdQ==": "utter_happy",
    "eJyLrq7VUaguKEoti09MLsnMz7NSqIYw4vMSc1OtFKCcnMziktQ8oNrS4tQioJrMPCC3xEohvSg1taSWgBmlJSWpRfEQpeSZQMAVufn5KSDzE4l0SkZiQUElfmNiAVKZa5w=": "action_listen",
    "eJyLrq7VUaguKEoti09MLsnMz7NSqIYw4vMSc1OtFKCcnMziktQ8oNrS4tQioJrMPCC3xEoBLB6fmJOTWpSempdaXFsbCwAyySAQ": "utter_liste_allergenes",
    "eJyLrq7VUaguKEoti09MLsnMz7NSqIYw4vMSc1OtFKCcnMziktQ8oNrS4tQioJrMPCC3xEoBLB6fmJOTWpSempdaXEvAuNKSktSieAxdRJgbCwAThkI4": "action_listen",
    "eJyLrq7VUaguKEoti09MLsnMz7NSqIYw4vMSc1OtFKCcnMziktQ8oNrS4tQioJrMPCC3xEohNzWvND45P7cgJ7WktjYWALWtHnY=": "utter_menu_complet",
    "eJyLrq7VUaguKEoti09MLsnMz7NSqIYw4vMSc1OtFKCcnMziktQ8oNrS4tQioJrMPCC3xEohNzWvND45P7cgJ7WkloBRpSUlqUXxKDoImBcLAA5yPWo=": "action_listen",
    "eJyLrq7VUaguKEoti09MLsnMz7NSqIYw4vMSc1OtFKCcnMziktQ8oNrS4tQioJrMPCC3xEqhKBXIL0sEqamtjQUAmDceIA==": "utter_ask_nombre_personnes",
    "eJyFjFEKgCAQBa/iATqBV4lYLN6HlKvsrv6Id8+o//5mYJi1j8X1ImgUDouZvesvEIcE7z65ohp4tlUhs4k81bwTTG/hacbPqZpBKOhJnNMuoALRzAz92W43lktAEw==": "action_listen",
    "eJyljkEKwzAMBL+iB+QF/koIwgl7MG3kICm5GP89Km3poYQeetuBZXbH1gdqm+LgvHipkqg9A0tekegF92IOie5u0OgUCfREiuAjPzr9h2l3h3K2G0tdZwVvUKsisL+0FwdDU7zAEo0yf6amgd4bXy/6dAIWR2he": "utter_ask_date_reservation",
    "eJyljlEKwkAMRK+SA/QEe5VSwlbnI2izJUn7s/TurqhUEFHo3wwMb15ft47qbFg5n0KKJqqPwJonJHqWq3hA23ZxWNuIthqJDK2v+b7ZfpCWCBhnv7CWaTTwDPOiCj+E/SLYMBICT9TruF8NHb0+Piz+9j/nAL8rHnodbrrZlh0=": "action_listen",
    "eJy1j1EKwkAMRK+SA/QEe5VSwlbnY9FmS5L2Z+ndXVFpsUgF8S8Dw7yXtiwNlVExczx5yhKoPA6WOCDQM1yTOaR2J4PWTpIaPZCi5jneO8vB0uQO5WgXljz0Ch6hlkVgP81+EKwzyRMsUCv9iuoaejF2Fl/7n6ODt4p/pB6/926zge1El+4GhXO/+w==": "utter_ask_nom_restaurant",
    "eJy1kUEKwjAQRa8yB+gJcpVShqnOImgnZWbSTejdTVGxWKRKcZcPP/+9kLbMDZRReUI6eUwSoNwPKDRwgEe4RnOW2s3GWjtRavQAyjVPtHTmnaXszopkF5Q09Mo4sloSYTs0+0GwzkSPbAFa6V+oroEnY2Pxtf+ZnHGt+Efq/vPebVawjegvX7RcdMpK4se53Q1vq+6Q": "action_listen",
    "eJy1kWEKgzAMha/SA3iCXkWkxC0/ymYqSeqf0ruvsg3rZOgY/suDl/e+Nm3KjUkj4+Tgoj6QNek5OIIBrXmJuxdFKt4oyMXjqUi1hrHoCWZP3kmKqsgO5OYoDD2jG5ElEKH8FfsFsMR49SjWtNQvVV1j3h0bisP8V1B0NeKJrfvP+6Spyjagv5xoXlSIDKRn9x644Ypn/Z81aO4eifQXAw==": "utter_ask_nom",
    "eJy1kWEKgzAMha/SA3iCXkWkxC0/ymYqSeqf4t1X2YZ1MlTEf33w+t6XpE5jZVLPODi4qQ9kTXo/HEGH1nzE04siZW8U5OzxlKVaw5j1AJNn3EiKqsgO5OEodC2j65ElEKGciv0DmGO8ehRramrnqqYy344VxW7+Oyi6EvHC1u3xfmmKshXokRNNHxUiA+nVvTtuuOBZ7rMEPTLguaLmBTsvP3Y=": "action_listen",
    "eJy1kVEKwyAQRK/iAXICrxKCbNr9kDZrWNf8BO9eQ1uqDSWG4p8D68yb3X6NnVpnxsXARawjrdbnwxBMqNVL3K0XpDQbPHKasZSkaMWY9ALbTDxwCiLIBvzNkJtGRjMje0eE/i/bH4DJxopFr1VP4ydq6NQ7Y0dRzX8FQZMjNkw9rvdNk4XtQM+caPsoEBhIWudW3LDgKfeZg54p2DKoqlHpHuPwAOqiXoo=": "utter_ask_num_tel",
    "eJy1kWEKgzAMha/SA3iCXkUkxC0/yjSVNPWPePdVtqFOhpXRf32Qvve9pJ7mykyD0Ah4U+fZmun1AMaerHmLzgUlTrMxkKQZx0mqNUJJj7jMzCdOUZUEMDyAfd8KwUASPDOFv2x/ACYbp46CNTW3a1RTmU/GgSKb/45KsEUsmHpe75tmE3YAvXKi5aNiFGQtnZtxwx3Pfp9b0CsFSwZlNdq7X2CPPSh1ubbNE7U9f1c=": "action_listen",
    "eJy1kVEKwyAMhq/iAXoCr1KK2C0wWY0lxr4U7z7LNqYto5atbwbj/30x7RwbMY8Ek9IXNg6lmJ8HhdqCFK9iMJ4BU2/wQKnHYCpZCoJUT3rpiTtJgRlIaX9X6GxPoEYg7xDB/xT7RTDFGDbgpWix/6C6RrwZG4tq/6tmULniidT98dY2GWwjemRFy0PWgTTy2dyKHRY+5X/mokcGPBNUNVGZfsA9WMUw/Ce2wjRYILcQYbw5hDx/dRVj9wDRValJ": "utter_ask_commentaire",
    "eJy1kVEKgzAMhq/SA3gCryJSoguszKaSpr6Id19lG6vKsOJ8a2j6f1+aapwKNfaMg4ZWjKNSja+DJrBYqnfRGS9IsTd45NhjKJZSKsZYDzD3TDtJQQRZg39ocrZh1D2yd0ToT8X+EIwxRgz6UlXUfFF1oT6MjUW2/w0Edap4IXV/vLVNAtuIHlnR/FAgMJBczc3Y4cJn+Z+p6JEBrwRlTbRMP+AerBbs/hObYRosspuJ2N8dYZq/usqfoXXWxggwjOeh9ROGsdaU": "action_listen",
    "eJy1kkEOgyAQRa/CATwBVzGGoJ2kpGUww+DGePdi2qagacS07Jw4/vc+2M5LI+aRYFJ6YONQivn5oFBbkOI13I1nwLgbPFDcMRhHloIgzpNed5aDpMAMpLS/KXS2J1AjkHeI4H+K/SIYYwwb8FK02H9QXSPejJ1Fsf9FM6hUsSL1uN7WJoHtRM9c0foh60AauTa34A4zn/w8U9EzBWuCihrl6Sfcg1UM9//EFpgGC+RWIoxXh5Dmb16VdxictTFCG4La0OOGiUzCSX7gTHfpHsSpAVw=": "action_save_reservation",
    "eJy1lFEKgzAMhq/SA3gCryJSogusbE0lTX0R777KNtYqw8rmm8H4f99vxWaaKzUNjKOGXoyjWk3PC01gsVav4W68IMXd4JHjjqE4Sq0Y4zzCsjPvJAURZA3+psnZjlEPyN4Rof8p9otgjDFi0Neqoe6Daiv1Zmwsiv0vIKhTxROp+/XWNglsI3rkiJYHBQIDydncgjPMfPL3mYoeKXgmqKhRnn7APVgteP9PbIFpsMhuIeJwdYRp/upWeYfeWRsjwDCeDd1vmMgknOQDznTLcB7G/Z/EQXD7AHCIMEY=": "action_listen",
    "eJyLrq7VUaguKEoti09MLsnMz7NSqIYw4vMSc1OtFKCcnMziktQ8oNrS4tQioJrMPCC3BCidlpaZnJFaFJ+Zl5YfX5QKlC1LBOmorY0FAGJ0I8I=": "utter_ask_numero_reservation",
    "eJyVjVEKgDAMQ6+yA3iCXUWkjNFh0VXpOn/G7m5Ff/wS/xKSl4ytD67tggeEqLSxd+0WwCGjd49ZqSiydWtBsQ6xWbU4JYozChCnDQQtPcJF9I/dqmpUKAtwzShv9s/NdALd3Uw/": "action_listen",
    "eJytTksKg0AMvUoO4AnmKiJhkAwN1SiZjJth7t4U24Vo6cbde7xvX1sHdVXaMI7GiwSoO0CJMwX4kImzkbi3ZFL3sDg1l1Pi8UGKLGlBJVe3+E60P73FzFMxP1HKTHrM3jfz476XsjHlAP15fujgu3vxrQ0vGmB4DQ==": "action_afficher_reservation",
    "eJytj1EKg0AMRK+SA3iCvYpIWCRLQ2ss2aw/i3c3pa0gWiy0fwmTmTdp69xAvStNGHvjUQLU54ASBwrwWm6cjcRvSyb1GxZfzeWUuL+QIksaUcnVKT4c80luMXNXzFeUMpBuvf/DfKjvoWxMOUC7x3cNvLkH3b4DroUP3/oF3y3gAamV": "action_listen",
    "eJyLrq7VUaguKEoti09MLsnMz7NSqIYw4vMSc1OtFKCcnMziktQ8oNrS4tQioJrMPCC3xEohNzWvND4rv7SotjYWAFwvHUI=": "utter_menu_jour",
    "eJyLrq7VUaguKEoti09MLsnMz7NSqIYw4vMSc1OtFKCcnMziktQ8oNrS4tQioJrMPCC3xEohNzWvND4rv7SoloA5pSUlqUXxCOX4TIoFAPCCOc4=": "action_listen",
    "eJwti8ENgDAMA1fpAEzQVRCKoiqPIJqiNO0n6u4Ewc9nn3dfW/JbaQIW4yY5+RdAsFJOP1zcjSTc0UnDYQm0mM82jBRKqzUKZCVQCmfi+1vreABGASZs": "utter_demande_commentaire",
    "eJydjcENgDAMA1fpAEzAKghVUfGjiKYopP1U3Z0gePBD4mc7Z2dqfXBtF1RPQWPm0bVbeKaE0T1mi4eCjS0HxJjIZtXOay4K8SGnZAFFgRcYU+nq9Y/1old5QSJe8B758Wk+AbNZUA8=": "action_listen",
    "eJytjzEOwzAIRa/CAXICXyWKLJQwENW4wjiL5buHqK3kDFWXbnz4vA9z6xO0p9IRcTXOEqC9iiiYKMBbPLgYiXtrIXUPi0vz8Z6rkcY1p+QNZKWo5J4Dr73+g17tWt4ooWw0Qv6e9OUPJ7ExlQDzAF4m+MQOEbf7+nICmkB6yA==": "action_listen",
    "eJyLrq7VUaguKEoti09MLsnMz7NSqIYw4vMSc1OtFKCcnMziktQ8oNrS4tQioJrMPCC3xEohrSg1LzkjPr0oNbWktjYWALSzHlo=": "utter_greet_french",
    "eJyLrq7VUaguKEoti09MLsnMz7NSqIYw4vMSc1OtFKCcnMziktQ8oNrS4tQioJrMPCC3xEohrSg1LzkjPr0oNbWkloBRpSUlqUUQpfEQfYTMiwUA/6k9Fg==": "action_listen",
    "eJyLrq7VUaguKEoti09MLsnMz7NSqIYw4vMSc1OtFKCcnMziktQ8oNrS4tQioJrMPCC3xEohvSg1taSWgBmlJSWpRfEQpeSZQMAVufn5KfGleRmJBQWVtbWxAN75UWc=": "utter_cheer_up",
    "eJydjlEKgCAQRK/iATqBV4lYxJYUchVdgxDv3oL9G/0MM/B4zNr6olrKeIGx7CNp1UYBMgG1esfpCyMJWwtmYTzJZK2OjMh94qjMmGGg/wyTFyHGHSo5k9L97Yx1KFnTzLU9XiFuqQ==": "utter_did_that_help",
    "eJytjlEKgCAQRK/iATqBV4lYRIcUahVbg5DunlD/RvQzzMDjMWM9B1VTxk7GSoisVb0LsVmh1TOWsAm4sWVDbkzgNkWrOQNydhxFBJlu9Juh82KN0VFhb1I63p2xHi1L+sPlgiPxRshj6QqnC1EGjek=": "action_listen",
    "eJytj9EJwzAMRFfxAJ3Aq4QgRKzUglg2ilwoxrvXkP67tP0Rd/B4nJbWb64VpQfgZpzFu3YFEEzk3bscfBrJYOtJOhiWUc27uxJZnziqGSlc6HeGyYqUc4AqEUt5fjZmizRuLf9wBQ5gEQ0iHT8KJ3/ivrOm3tcXH2yoGw==": "utter_happy",
    "eJytj0EKAyEMRa/iAXoCr1JKCGOmBsYomVgoMnevYLfFoe0m5MPn5eXajotrRekBuBhn8a6NBQQTefcOG+9G0rt1J+0dlh7Nu7sS2TFhVDNSGNXvCBOLlHOAKhFLeZ6TWSL1Wcs/WIEDWESDSNuPwMmfuK6s6ZzVuPcRcXsBe37Blg==": "action_listen",
    "eJytj1EKwyAQRK/iAXoCr1LCInGIQrKKWQNFvHsX7L+h7c8yA4/H7LP1h2m54CK3SkxsTRuB2B2w5lP2eApY2XqiKBNZq1izFUD6xFFFUGig3xkmK46UPFUOLufXvTFrgN6a/+Hy0ZMEJxSw/yic/OnBqlje0A2nVg==": "utter_goodbye",
    "eJytj9EJwzAMRFfxAJ3Aq4Qg3PiIDYlsHLkQTHavIP0NDm1/hA6Op6ehHQ/TcsGL3CQxsTXtXIjdCms+YYmbgLVbNxTtRNYo1swFkKPDqCIodFa/I3Qs1pQ8VQ4u5/2ezBSgs+Z/sHz0JMEJBSw/Ajt/evBNp1mPPndcIcY3+fTA0w==": "action_listen"
  }
}