{
  "le 12 mai": "Le 12 mai",
  "midi": "midi",
  "4 personnes": "4 personnes",
  "napoli": "Napoli",
  "22 juin": "22 juin",
  "19h": "19h",
  "6 personnes": "6 personnes",
  "15 juillet": "15 juillet",
  "le 5 août": "Le 5 août",
  "20h": "20h",
  "2 personnes": "2 personnes",
  "30 septembre": "30 septembre",
  "à 18h30": "À 18h30",
  "8 personnes": "8 personnes",
  "oba ramen": "Oba Ramen",
  "le 3 novembre": "Le 3 novembre",
  "21h": "21h",
  "5 personnes": "5 personnes",
  "le 1er janvier": "le 1er janvier",
  "10 décembre": "10 décembre",
  "13h": "13h",
  "3 personnes": "3 personnes",
  "bistro du coin": "Bistro du Coin"
}