{
  "lookup": {
    "eJyLrq6NBQAEOAGx": "action_listen",
    "eJyLrq7VUaguKEoti09MLsnMz7NSqIYw4vMSc1OtFKCcnMziktQ8oNrS4tQioJrMPCC3BCidl1eak1oUX5QKFC9LBKmtrY0FAJafIXQ=": "action_annuler_reservation",
    "eJyLrq7VUaguKEoti09MLsnMz7NSqIYw4vMSc1OtFKCcnMziktQ8oNrS4tQioJrMPCC3BCidl1eak1oUX5QKFC9LBKmtJc5EbDqJMz4WANrZRq4=": "action_listen",
    "eJyLrq7VUaguKEoti09MLsnMz7NSqIYw4vMSc1OtFKCcnMziktQ8oNrS4tQioJrMPCC3xEohvSg1taS2NhYA6dwbhQ==": "utter_greet",
    "eJyLrq7VUaguKEoti09MLsnMz7NSqIYw4vMSc1OtFKCcnMziktQ8oNrS4tQioJrMPCC3xEohvSg1taSWgBmlJSWpRfEQpbhMiAUAQvc0lw==": "action_listen",
    "eJyLrq7VUaguKEoti09MLsnMz7NSqIYw4vMSc1OtFKCcnMziktQ8oNrS4tQioJrMPCC3xEohvSg1taSWgBmlJSWpRfEQpeSZQMAVufn5KSDzE4EGxQIAPEFQdQ==": "utter_happy",
    "eJyLrq7VUaguKEoti09MLsnMz7NSqIYw4vMSc1OtFKCcnMziktQ8oNrS4tQioJrMPCC3xEohvSg1taSWgBmlJSWpRfEQpeSZQMAVufn5KSDzE4l0SkZiQUElfmNiAVKZa5w=": "action_listen",
    "eJyLrq7VUaguKEoti09MLsnMz7NSqIYw4vMSc1OtFKCcnMziktQ8oNrS4tQioJrMPCC3xEoBLB6fmJOTWpSempdaXFsbCwAyySAQ": "utter_liste_allergenes",
    "eJyLrq7VUaguKEoti09MLsnMz7NSqIYw4vMSc1OtFKCcnMziktQ8oNrS4tQioJrMPCC3xEoBLB6fmJOTWpSempdaXEvAuNKSktSieAxdRJgbCwAThkI4": "action_listen",
    "eJyLrq7VUaguKEoti09MLsnMz7NSqIYw4vMSc1OtFKCcnMziktQ8oNrS4tQioJrMPCC3xEohNzWvND45P7cgJ7WktjYWALWtHnY=": "utter_menu_complet",
    "eJyLrq7VUaguKEoti09MLsnMz7NSqIYw4vMSc1OtFKCcnMziktQ8oNrS4tQioJrMPCC3xEohNzWvND45P7cgJ7WkloBRpSUlqUXxKDoImBcLAA5yPWo=": "action_listen",
    "eJyLrq7VUaguKEoti09MLsnMz7NSqIYw4vMSc1OtFKCcnMziktQ8oNrS4tQioJrMPCC3xEqhKBXIL0sEqamtjQUAmDceIA==": "utter_ask_nombre_personnes",
    "eJyFjFEKgCAQBa/iATqBV4lYLN6HlKvsrv6Id8+o//5mYJi1j8X1ImgUDouZvesvEIcE7z65ohp4tlUhs4k81bwTTG/hacbPqZpBKOhJnNMuoALRzAz92W43lktAEw==": "action_listen",
    "eJyljkEKwzAMBL+iB+QF/koIwi0bEK3lICm5GP89Lm0vhdJDbxoYZjW3PlHbDAfna0jVRO15sOaCRC+4iwd0uLvDhiM6MBIZBh/54fQfpT0CxtlvrLVcDLzBvKrC/8p+eXBkJASeaP6cWyZ674iu1UrvywmvsmXd": "utter_ask_date_reservation",
    "eJyljlEKwkAMRK+SA/QEe5VSwqojBN1sSdL+LL27KyqIIIr+zcBj3oxtG6jNhpXzPqRqonYLrLkg0b2cxQPa2cVhnRHtNRIZel/zldk+LC0RMM5+Yq1lZ+AZ5lUV/tfsm4N9RkLgicZX3TTQwyN6rFa+f37IAX4+96NvugDCtpEb": "action_listen",
    "eJy1j1EKwkAMRK+SA/QEe5VSQtQIQTdbkrQ/S+/uihakKBXEvwwM8176unRQR+MZ6RhSNEF9HKiUOcEzXMWDtXUnZ2sd0RYjgXHLM907y87SFMGG5BfUkg/GOLJ5UWX/afaDYJuREPYE/RY3dLByRM/F8vfmJwrGV7m/8PZf2nq8QQw3MdK21Q==": "utter_ask_nom_restaurant",
    "eJy1j1EKwkAMRK+yB+gJ9iqlhKgRgm62ZLP9WXp3U7QgBalY/MvA8Oalb3MX2qg0AZ6Ns8TQngcIJorhFe5cjMS7tZB6h8WjxaDkecKlM++QqhkpYLmB5HRSgpG0ZBEqh7AfBB3DxlRi6LdzQxfWHZZr1vS9+QWN4F3uL3v7L209DrzktgvJsCqK/bo2PADv4eFG": "action_listen",
    "eJy1kWEKgzAMha+SA3iCXkUkZFsGZWsqSeof8e6rbAORDQXxXx883veFtuPUwNgrD0hXj1kCjO8HCiUO8AnPaM5Su8VYaydKjR5AueaB5s60sVTcWZHsgZLTRRl7VssibIdm/wjWmeiRLUC7xnUNfDlR7lnTfvMbOeNS7hTe9klrjwMnVdt5yakoiZ9D2/VHC4sfgO4FVTsGUg==": "utter_reservation_confirmee",
    "eJy1kVEKg0AMRK+yB/AEexWRkNoIod2sZKM/4t270gqLUBTFvwwMM29IPc2Vm3qlEbA1juLd9D1AMJB3P/HmZCTZOyTS7GHJ0rxTynrExTPvJA1mpIDpBRLDQwl60hRFKF2K/QOYY9iYknf1tq6p3NrD0kUNx8mfaAQl3C19+5O2HBcmZdolyXBQFLun7dCPCoqTcwpEaKN0rIHoXF3zAW9aMT8=": "action_listen",
    "eJyLrq7VUaguKEoti09MLsnMz7NSqIYw4vMSc1OtFKCcnMziktQ8oNrS4tQioJrMPCC3BCidlpaZnJFaFJ+Zl5YfX5QKlC1LBOmorY0FAGJ0I8I=": "utter_info_reservation",
    "eJyLrq7VUaguKEoti09MLsnMz7NSqIYw4vMSc1OtFKCcnMziktQ8oNrS4tQioJrMPCC3BCidlpaZnJFaFJ+Zl5YfX5QKlC1LBOmoJWBuaUkJNl2kWBALABIqSbc=": "action_listen",
    "eJyLrq7VUaguKEoti09MLsnMz7NSqIYw4vMSc1OtFKCcnMziktQ8oNrS4tQioJrMPCC3xEohNzWvND4rv7SotjYWAFwvHUI=": "utter_menu_jour",
    "eJyLrq7VUaguKEoti09MLsnMz7NSqIYw4vMSc1OtFKCcnMziktQ8oNrS4tQioJrMPCC3xEohNzWvND4rv7SoloA5pSUlqUXxCOX4TIoFAPCCOc4=": "action_listen",
    "eJwti8ENgDAMA1fpAEzQVRCKoiqPIJqiNO0n6u4Ewc9nn3dfW/JbaQIW4yY5+RdAsFJOP1zcjSTc0UnDYQm0mM82jBRKqzUKZCVQCmfi+1vreABGASZs": "utter_demande_commentaire",
    "eJydjcENgDAMA1fpAEzAKghVUfGjiKYopP1U3Z0gePBD4mc7Z2dqfXBtF1RPQWPm0bVbeKaE0T1mi4eCjS0HxJjIZtXOay4K8SGnZAFFgRcYU+nq9Y/1old5QSJe8B758Wk+AbNZUA8=": "action_listen",
    "eJytj8ENwzAIRVdhgEzgVaLIshIqERVcYZyL5d1D1FbyJeqlNz583oe59QnaS/GIaTXKEqC9iyiJMcBHPKkYintrQXUPiUvz8Z6rocY1M3sjkWJUdM+Rrr3+g17tWt6Qk2w4Qv6edPOHk8gIS4B5gI0hywTfE0geWbn35QRGm3i/": "utter_reservation_confirmee",
    "eJytj9EJwzAMRFfxAJnAq4RgTHIBlUousp0fk92r0Bacj9JC+6eTTu+kse2DazfFFuJcKIl37VEEiQzvnuJKuUDMWzPUPCQmi40vqRZomBOzNSIpgsI8Wzz29g/0Wo7lBRxlQQ/5e9KbP4xEhZC9GztYHzIN7nUCyZqUv/vpTJOVlIEfc6c725KnXw==": "action_listen",
    "eJyLrq7VUaguKEoti09MLsnMz7NSqIYw4vMSc1OtFKCcnMziktQ8oNrS4tQioJrMPCC3xEohrSg1LzkjPr0oNbWktjYWALSzHlo=": "utter_greet_french",
    "eJyLrq7VUaguKEoti09MLsnMz7NSqIYw4vMSc1OtFKCcnMziktQ8oNrS4tQioJrMPCC3xEohrSg1LzkjPr0oNbWkloBRpSUlqUUQpfEQfYTMiwUA/6k9Fg==": "action_listen",
    "eJyLrq7VUaguKEoti09MLsnMz7NSqIYw4vMSc1OtFKCcnMziktQ8oNrS4tQioJrMPCC3xEohvSg1taSWgBmlJSWpRfEQpeSZQMAVufn5KfGleRmJBQWVtbWxAN75UWc=": "utter_cheer_up",
    "eJydjlEKgCAQRK/iATqBV4lYxJYUchVdgxDv3oL9G/0MM/B4zNr6olrKeIGx7CNp1UYBMgG1esfpCyMJWwtmYTzJZK2OjMh94qjMmGGg/wyTFyHGHSo5k9L97Yx1KFnTzLU9XiFuqQ==": "utter_did_that_help",
    "eJytjlEKgCAQRK/iATqBV4lYRIcUahVbg5DunlD/RvQzzMDjMWM9B1VTxk7GSoisVb0LsVmh1TOWsAm4sWVDbkzgNkWrOQNydhxFBJlu9Juh82KN0VFhb1I63p2xHi1L+sPlgiPxRshj6QqnC1EGjek=": "action_listen",
    "eJytj9EJwzAMRFfxAJ3Aq4QgRKzUglg2ilwoxrvXkP67tP0Rd/B4nJbWb64VpQfgZpzFu3YFEEzk3bscfBrJYOtJOhiWUc27uxJZnziqGSlc6HeGyYqUc4AqEUt5fjZmizRuLf9wBQ5gEQ0iHT8KJ3/ivrOm3tcXH2yoGw==": "utter_happy",
    "eJytj0EKAyEMRa/iAXoCr1JKCGOmBsYomVgoMnevYLfFoe0m5MPn5eXajotrRekBuBhn8a6NBQQTefcOG+9G0rt1J+0dlh7Nu7sS2TFhVDNSGNXvCBOLlHOAKhFLeZ6TWSL1Wcs/WIEDWESDSNuPwMmfuK6s6ZzVuPcRcXsBe37Blg==": "action_listen",
    "eJytj1EKwyAQRK/iAXoCr1LCInGIQrKKWQNFvHsX7L+h7c8yA4/H7LP1h2m54CK3SkxsTRuB2B2w5lP2eApY2XqiKBNZq1izFUD6xFFFUGig3xkmK46UPFUOLufXvTFrgN6a/+Hy0ZMEJxSw/yic/OnBqlje0A2nVg==": "utter_goodbye",
    "eJytj9EJwzAMRFfxAJ3Aq4Qg3PiIDYlsHLkQTHavIP0NDm1/hA6Op6ehHQ/TcsGL3CQxsTXtXIjdCms+YYmbgLVbNxTtRNYo1swFkKPDqCIodFa/I3Qs1pQ8VQ4u5/2ezBSgs+Z/sHz0JMEJBSw/Ajt/evBNp1mPPndcIcY3+fTA0w==": "action_listen"
  }
}