{
  "lookup": {
    "eJyLrq6NBQAEOAGx": "action_listen",
    "eJyLrq7VUaguKEoti09MLsnMz7NSqIYw4vMSc1OtFKCcnMziktQ8oNrS4tQioJrMPCC3BCidl1eak1oUX5QKFC9LBKmtrY0FAJafIXQ=": "action_annuler_reservation",
    "eJyLrq7VUaguKEoti09MLsnMz7NSqIYw4vMSc1OtFKCcnMziktQ8oNrS4tQioJrMPCC3BCidl1eak1oUX5QKFC9LBKmtJc5EbDqJMz4WANrZRq4=": "action_listen",
    "eJyLrq7VUaguKEoti09MLsnMz7NSqIYw4vMSc1OtFKCcnMziktQ8oNrS4tQioJrMPCC3xEohvSg1taS2NhYA6dwbhQ==": "utter_greet",
    "eJyLrq7VUaguKEoti09MLsnMz7NSqIYw4vMSc1OtFKCcnMziktQ8oNrS4tQioJrMPCC3xEohvSg1taSWgBmlJSWpRfEQpbhMiAUAQvc0lw==": "action_listen",
    "eJyLrq7VUaguKEoti09MLsnMz7NSqIYw4vMSc1OtFKCcnMziktQ8oNrS4tQioJrMPCC3xEohvSg1taSWgBmlJSWpRfEQpeSZQMAVufn5KSDzE4EGxQIAPEFQdQ==": "utter_happy",
    "eJyLrq7VUaguKEoti09MLsnMz7NSqIYw4vMSc1OtFKCcnMziktQ8oNrS4tQioJrMPCC3xEohvSg1taSWgBmlJSWpRfEQpeSZQMAVufn5KSDzE4l0SkZiQUElfmNiAVKZa5w=": "action_listen",
    "eJyLrq7VUaguKEoti09MLsnMz7NSqIYw4vMSc1OtFKCcnMziktQ8oNrS4tQioJrMPCC3xEoBLB6fmJOTWpSempdaXFsbCwAyySAQ": "utter_liste_allergenes",
    "eJyLrq7VUaguKEoti09MLsnMz7NSqIYw4vMSc1OtFKCcnMziktQ8oNrS4tQioJrMPCC3xEoBLB6fmJOTWpSempdaXEvAuNKSktSieAxdRJgbCwAThkI4": "action_listen",
    "eJyLrq7VUaguKEoti09MLsnMz7NSqIYw4vMSc1OtFKCcnMziktQ8oNrS4tQioJrMPCC3xEohNzWvND45P7cgJ7WktjYWALWtHnY=": "utter_menu_complet",
    "eJyLrq7VUaguKEoti09MLsnMz7NSqIYw4vMSc1OtFKCcnMziktQ8oNrS4tQioJrMPCC3xEohNzWvND45P7cgJ7WkloBRpSUlqUXxKDoImBcLAA5yPWo=": "action_listen",
    "eJyLrq7VUaguKEoti09MLsnMz7NSqIYw4vMSc1OtFKCcnMziktQ8oNrS4tQioJrMPCC3xEqhKBXIL0sEqamtjQUAmDceIA==": "utter_ask_nombre_personnes",
    "eJyFjFEKgCAQBa/iATqBV4lYLN6HlKvsrv6Id8+o//5mYJi1j8X1ImgUDouZvesvEIcE7z65ohp4tlUhs4k81bwTTG/hacbPqZpBKOhJnNMuoALRzAz92W43lktAEw==": "action_listen",
    "eJyljkEKwzAMBL+iB+QF/koIwi0bEK3lICm5GP89LmmPpYfeNDDMam59orYZDs73kKqJ2nWw5oJEb3iKB3S4u8OGIzowEhkGH/nl9B+lPQLG2R+stdwMvMG8qsL/yn55cGQkBJ5ovuaWiT510bVa6X05Ab4aYaE=": "utter_ask_date_reservation",
    "eJyljlEKwkAMRK+SA/QEe5VSwqojBN1sSdL+LL27K1XwR1T8m4HhzRvbNlCbDSvnY0jVRG0PrLkg0aNcxQPat4vD+ka010hk6H3N9832gbREwDj7hbWWg4FnmFdV+F/YN4IdIyHwRON+Nw30pIueq5XvfU85wK9KP71MN38FiKM=": "action_listen",
    "eJytjlEKwkAMRK+SA/QEe5VSQtQIQTdbkrQ/S+/ullrwQ6mgfzMwvHl9XTqoo/GMdA4pmqBuAZUyJ3iWu3iwtu3kbG0j2mokMG59pnWzHJCmCDYkv6GWfDLGkc2LKvtP2A+CDSMh7An67W7oYKeLXovl730vFIyvSn98OdZf399ghweLGKlM": "utter_ask_nom_restaurant",
    "eJytjlEKwkAMRK+yB+gJ9iqlhKgRgm62ZLP9WXp3s1TBH6lS/2ZgePPGtg6hzUoL4Nk4SwxtCyCYKIZnuXMxEt/WQuobFq8Wg5L3Bftm3SFVM1LAcgPJ6aQEM2nJIlQOYT8IOoaNqcQwbnfTEF50lmvW9L3vBY3gXemPL/v6/f2AvHt1d8OqKPbLw/QAmvvOrA==": "action_listen",
    "eJytkEEKwzAMBL/iB+QF/koIQm1VEG3kIMu5mPy9Mmmhh5YEkpsWltlBfV26UCelGfBqnCSGuh4gOFIM7/DkbCTeLZnUOyweLQYlzzO2zrJBKmakgPkBksaLEkykOYlQPoT9I+gYNqYcQ7/ODV340FnuScf9vjc0gm+lE1e29dv6AXn3au6GRVHsvIVdf2/LP8jDC0ri8Ko=": "utter_reservation_confirmee",
    "eJytkEEKg0AMRa8yB/AEcxWRkNoIoZ2MZDJuxLt3BltwU7TVXT58/nuknZfGzaPSBNgbR/FuXg8QDOTdOzw5GUnp5kRaOiwlmndKJU9YO8vOUjYjBUwPkBhuSjCSpihC6dTsF8Eyw8aUvGtXXNe4zzrLEDUc972jEWyVLqTs61f6CfniVd0Ns6LYdYRDf6/kP903/4Y+ysAaiH7kdC9G4hin": "action_listen",
    "eJyLrq7VUaguKEoti09MLsnMz7NSqIYw4vMSc1OtFKCcnMziktQ8oNrS4tQioJrMPCC3BCidlpaZnJFaFJ+Zl5YfX5QKlC1LBOmorY0FAGJ0I8I=": "utter_info_reservation",
    "eJyLrq7VUaguKEoti09MLsnMz7NSqIYw4vMSc1OtFKCcnMziktQ8oNrS4tQioJrMPCC3BCidlpaZnJFaFJ+Zl5YfX5QKlC1LBOmoJWBuaUkJNl2kWBALABIqSbc=": "action_listen",
    "eJyLrq7VUaguKEoti09MLsnMz7NSqIYw4vMSc1OtFKCcnMziktQ8oNrS4tQioJrMPCC3xEohNzWvND4rv7SotjYWAFwvHUI=": "utter_menu_jour",
    "eJyLrq7VUaguKEoti09MLsnMz7NSqIYw4vMSc1OtFKCcnMziktQ8oNrS4tQioJrMPCC3xEohNzWvND4rv7SoloA5pSUlqUXxCOX4TIoFAPCCOc4=": "action_listen",
    "eJwti8ENgDAMA1fpAEzQVRCKoiqPIJqiNO0n6u4Ewc9nn3dfW/JbaQIW4yY5+RdAsFJOP1zcjSTc0UnDYQm0mM82jBRKqzUKZCVQCmfi+1vreABGASZs": "utter_demande_commentaire",
    "eJydjcENgDAMA1fpAEzAKghVUfGjiKYopP1U3Z0gePBD4mc7Z2dqfXBtF1RPQWPm0bVbeKaE0T1mi4eCjS0HxJjIZtXOay4K8SGnZAFFgRcYU+nq9Y/1old5QSJe8B758Wk+AbNZUA8=": "action_listen",
    "eJytj0EKw0AIRa/iAXKCuUoIgyQWLNUpjpPNMHevoS1kE7rpzq//v49zHxP0p9GecXUumqC/h6wolOAjHlydNLytkoWHNaTH+V6ak+W1iMQC2SgbhWfHIzd+0Jsf4Y0EdaMz5O9NF38EiZ2pJphP4GWCby3rrZiMsbwArFRzrg==": "utter_reservation_confirmee",
    "eJytT9sJwzAMXMUDZIKsEoIxyQVUKrnIcn5Mdq9CW/BPaSn900n30E3tGEK7KfaYFqMsY2iPIUpijOEJrlQM4txaoM4hcWh+vuRq0LhkZl8kUkSFc/Z06o4P7tVO8QpOsqI3+XvSmx7uREYoY5g643kIr1iSLSt/16N7x9+UjZSBH7LmO1QrnT0=": "action_listen",
    "eJyLrq7VUaguKEoti09MLsnMz7NSqIYw4vMSc1OtFKCcnMziktQ8oNrS4tQioJrMPCC3xEohrSg1LzkjPr0oNbWktjYWALSzHlo=": "utter_greet_french",
    "eJyLrq7VUaguKEoti09MLsnMz7NSqIYw4vMSc1OtFKCcnMziktQ8oNrS4tQioJrMPCC3xEohrSg1LzkjPr0oNbWkloBRpSUlqUUQpfEQfYTMiwUA/6k9Fg==": "action_listen",
    "eJyLrq7VUaguKEoti09MLsnMz7NSqIYw4vMSc1OtFKCcnMziktQ8oNrS4tQioJrMPCC3xEohvSg1taSWgBmlJSWpRfEQpeSZQMAVufn5KfGleRmJBQWVtbWxAN75UWc=": "utter_cheer_up",
    "eJydjlEKgCAQRK/iATqBV4lYxJYUchVdgxDv3oL9G/0MM/B4zNr6olrKeIGx7CNp1UYBMgG1esfpCyMJWwtmYTzJZK2OjMh94qjMmGGg/wyTFyHGHSo5k9L97Yx1KFnTzLU9XiFuqQ==": "utter_did_that_help",
    "eJytjlEKgCAQRK/iATqBV4lYRIcUahVbg5DunlD/RvQzzMDjMWM9B1VTxk7GSoisVb0LsVmh1TOWsAm4sWVDbkzgNkWrOQNydhxFBJlu9Juh82KN0VFhb1I63p2xHi1L+sPlgiPxRshj6QqnC1EGjek=": "action_listen",
    "eJytj9EJwzAMRFfxAJ3Aq4QgRKzUglg2ilwoxrvXkP67tP0Rd/B4nJbWb64VpQfgZpzFu3YFEEzk3bscfBrJYOtJOhiWUc27uxJZnziqGSlc6HeGyYqUc4AqEUt5fjZmizRuLf9wBQ5gEQ0iHT8KJ3/ivrOm3tcXH2yoGw==": "utter_happy",
    "eJytj0EKAyEMRa/iAXoCr1JKCGOmBsYomVgoMnevYLfFoe0m5MPn5eXajotrRekBuBhn8a6NBQQTefcOG+9G0rt1J+0dlh7Nu7sS2TFhVDNSGNXvCBOLlHOAKhFLeZ6TWSL1Wcs/WIEDWESDSNuPwMmfuK6s6ZzVuPcRcXsBe37Blg==": "action_listen",
    "eJytj1EKwyAQRK/iAXoCr1LCInGIQrKKWQNFvHsX7L+h7c8yA4/H7LP1h2m54CK3SkxsTRuB2B2w5lP2eApY2XqiKBNZq1izFUD6xFFFUGig3xkmK46UPFUOLufXvTFrgN6a/+Hy0ZMEJxSw/yic/OnBqlje0A2nVg==": "utter_goodbye",
    "eJytj9EJwzAMRFfxAJ3Aq4Qg3PiIDYlsHLkQTHavIP0NDm1/hA6Op6ehHQ/TcsGL3CQxsTXtXIjdCms+YYmbgLVbNxTtRNYo1swFkKPDqCIodFa/I3Qs1pQ8VQ4u5/2ezBSgs+Z/sHz0JMEJBSw/Ajt/evBNp1mPPndcIcY3+fTA0w==": "action_listen"
  }
}