[
  {
    "tag_name": "entity",
    "ids_to_tags": {
      "1": "B-commentaire",
      "2": "I-commentaire",
      "3": "L-commentaire",
      "4": "U-commentaire",
      "5": "B-date_reservation",
      "6": "I-date_reservation",
      "7": "L-date_reservation",
      "8": "U-date_reservation",
      "9": "B-heure_reservation",
      "10": "I-heure_reservation",
      "11": "L-heure_reservation",
      "12": "U-heure_reservation",
      "13": "B-nom_restaurant",
      "14": "I-nom_restaurant",
      "15": "L-nom_restaurant",
      "16": "U-nom_restaurant",
      "17": "B-nombre_personnes",
      "18": "I-nombre_personnes",
      "19": "L-nombre_personnes",
      "20": "U-nombre_personnes",
      "0": "O"
    },
    "tags_to_ids": {
      "B-commentaire": 1,
      "I-commentaire": 2,
      "L-commentaire": 3,
      "U-commentaire": 4,
      "B-date_reservation": 5,
      "I-date_reservation": 6,
      "L-date_reservation": 7,
      "U-date_reservation": 8,
      "B-heure_reservation": 9,
      "I-heure_reservation": 10,
      "L-heure_reservation": 11,
      "U-heure_reservation": 12,
      "B-nom_restaurant": 13,
      "I-nom_restaurant": 14,
      "L-nom_restaurant": 15,
      "U-nom_restaurant": 16,
      "B-nombre_personnes": 17,
      "I-nombre_personnes": 18,
      "L-nombre_personnes": 19,
      "U-nombre_personnes": 20,
      "O": 0
    },
    "num_tags": 21
  }
]